{
    "name": "PGPIO-2",
    "keywords": "std, STL",
    "description": "fake test lib not for production use",
    "authors":
    [
        {
            "name": "Malachi Burke",
            "maintainer": true
        }
    ],
    "build":
    {
        "srcFilter":
        [
            "+<*>",
            "-<.idea>"
        ]
    },
    "export": {
        "exclude": [
            "test",
            "ext"
        ]
    },
    "examples": [
        "examples/pio/*/src/*.cpp"
    ],
    "version": "0.1.1",
    "frameworks": [
        "arduino"
    ]
}
